{
  "project_info": {
    "project_number": "103271643736",
    "project_id": "flutterbp",
    "storage_bucket": "flutterbp.appspot.com"
  },
  "client": [
    {
      "client_info": {
        "mobilesdk_app_id": "1:103271643736:android:d081404dcc5536f800e82d",
        "android_client_info": {
          "package_name": "com.flutter.bp"
        }
      },
      "oauth_client": [
        {
          "client_id": "103271643736-6pndrptavp46nvulcas1biptkqm4m5f1.apps.googleusercontent.com",
          "client_type": 3
        }
      ],
      "api_key": [
        {
          "current_key": "AIzaSyAN9sSe0iGLSO9p12pgDPrmi35QA3JABoM"
        }
      ],
      "services": {
        "appinvite_service": {
          "other_platform_oauth_client": [
            {
              "client_id": "103271643736-6pndrptavp46nvulcas1biptkqm4m5f1.apps.googleusercontent.com",
              "client_type": 3
            },
            {
              "client_id": "103271643736-m5v7ae5j1lbfu2kj9dhr9gr1cb7lfeed.apps.googleusercontent.com",
              "client_type": 2,
              "ios_info": {
                "bundle_id": "com.example.flutterBp"
              }
            }
          ]
        }
      }
    }
  ],
  "configuration_version": "1"
}